<svg width="20" height="20" viewBox="0 0 20 20" fill="none" xmlns="http://www.w3.org/2000/svg">
<path d="M0 20L1.40583 14.8642C0.538332 13.3608 0.0824998 11.6567 0.0833332 9.90918C0.0858331 4.44585 4.53166 3.05176e-05 9.99414 3.05176e-05C12.645 0.000863849 15.1333 1.03336 17.005 2.90669C18.8758 4.78002 19.9058 7.27002 19.905 9.91834C19.9025 15.3825 15.4566 19.8283 9.99414 19.8283C8.33581 19.8275 6.70165 19.4117 5.25415 18.6217L0 20ZM5.49749 16.8275C6.89415 17.6567 8.22748 18.1533 9.99081 18.1542C14.5308 18.1542 18.2291 14.4592 18.2316 9.91668C18.2333 5.36502 14.5525 1.67503 9.99748 1.67336C5.45415 1.67336 1.75833 5.36835 1.75666 9.91001C1.75583 11.7642 2.29916 13.1525 3.21166 14.605L2.37916 17.645L5.49749 16.8275ZM14.9866 12.2742C14.925 12.1708 14.76 12.1092 14.5116 11.985C14.2641 11.8608 13.0466 11.2617 12.8191 11.1792C12.5925 11.0967 12.4275 11.055 12.2616 11.3033C12.0966 11.5508 11.6216 12.1092 11.4775 12.2742C11.3333 12.4392 11.1883 12.46 10.9408 12.3358C10.6933 12.2117 9.89498 11.9508 8.94915 11.1067C8.21331 10.45 7.71582 9.63918 7.57165 9.39084C7.42748 9.14334 7.55665 9.00918 7.67998 8.88584C7.79165 8.77501 7.92748 8.59668 8.05165 8.45168C8.17748 8.30835 8.21832 8.20501 8.30165 8.03918C8.38415 7.87418 8.34332 7.72918 8.28082 7.60501C8.21832 7.48168 7.72332 6.26252 7.51748 5.76668C7.31582 5.28419 7.11165 5.34919 6.95998 5.34169L6.48499 5.33335C6.31999 5.33335 6.05165 5.39502 5.82499 5.64335C5.59832 5.89168 4.95832 6.49002 4.95832 7.70918C4.95832 8.92834 5.84582 10.1058 5.96915 10.2708C6.09332 10.4358 7.71498 12.9375 10.1991 14.01C10.79 14.265 11.2516 14.4175 11.6108 14.5317C12.2041 14.72 12.7441 14.6933 13.1708 14.63C13.6466 14.5592 14.6358 14.0308 14.8425 13.4525C15.0491 12.8733 15.0491 12.3775 14.9866 12.2742Z" fill="#526D82"/>
</svg>
